{
  "data": [
    {
      "id": "abc123",
      "location": "Goa",
      "description": "A beautiful place to vist, cool beaches and vintage streets",
      "images": [
        "https://images.pexels.com/photos/302769/pexels-photo-302769.jpeg?auto=compress&cs=tinysrgb&dpr=2&h=650&w=940",
        "https://images.pexels.com/photos/884979/pexels-photo-884979.jpeg?auto=compress&cs=tinysrgb&dpr=2&h=650&w=940",
        "https://images.pexels.com/photos/291762/pexels-photo-291762.jpeg?auto=compress&cs=tinysrgb&dpr=2&h=650&w=940"
      ],
      "hotels": [
        {
          "hotelName": "Baga Resort",
          "hotelLocation": "Near Baga Beach"
        },
        {
          "hotelName": "Palolem Resort",
          "hotelLocation": "Near Baga Beach"
        }
      ],
      "foods": [
        {
          "foodName": "Fist Fry",
          "restaurantName": "Fish Deck"
        },
        {
          "foodName": "Fist Fry",
          "restaurantName": "Fish Deck"
        }
      ],
      "user": {
        "userName": "Anil",
        "userImage": "https://cdn.pixabay.com/photo/2020/05/09/13/29/photographer-5149664_1280.jpg"
      },
      "created_at": "2020-12-11T20:44:52.000Z"
    },
    {
      "id": "abc1234",
      "location": "Goa",
      "description": "A beautiful place to vist, cool beaches and vintage streets",
      "images": [
        "https://images.pexels.com/photos/302769/pexels-photo-302769.jpeg?auto=compress&cs=tinysrgb&dpr=2&h=650&w=940",
        "https://images.pexels.com/photos/884979/pexels-photo-884979.jpeg?auto=compress&cs=tinysrgb&dpr=2&h=650&w=940",
        "https://images.pexels.com/photos/291762/pexels-photo-291762.jpeg?auto=compress&cs=tinysrgb&dpr=2&h=650&w=940"
      ],
      "hotels": [
        {
          "hotelName": "Baga Resort",
          "hotelLocation": "Near Baga Beach"
        },
        {
          "hotelName": "Palolem Resort",
          "hotelLocation": "Near Baga Beach"
        }
      ],
      "foods": [
        {
          "foodName": "Fist Fry",
          "restaurantName": "Fish Deck"
        },
        {
          "foodName": "Fist Fry",
          "restaurantName": "Fish Deck"
        }
      ],
      "user": {
        "userName": "Anil",
        "userImage": "https://cdn.pixabay.com/photo/2020/05/09/13/29/photographer-5149664_1280.jpg"
      },
      "created_at": "2020-11-11T20:44:52.000Z"
    },
    {
      "id": "abc12345",
      "location": "Goa",
      "description": "A beautiful place to vist, cool beaches and vintage streets",
      "images": [
        "https://images.pexels.com/photos/302769/pexels-photo-302769.jpeg?auto=compress&cs=tinysrgb&dpr=2&h=650&w=940",
        "https://images.pexels.com/photos/884979/pexels-photo-884979.jpeg?auto=compress&cs=tinysrgb&dpr=2&h=650&w=940",
        "https://images.pexels.com/photos/291762/pexels-photo-291762.jpeg?auto=compress&cs=tinysrgb&dpr=2&h=650&w=940"
      ],
      "hotels": [
        {
          "hotelName": "Baga Resort",
          "hotelLocation": "Near Baga Beach"
        },
        {
          "hotelName": "Palolem Resort",
          "hotelLocation": "Near Baga Beach"
        }
      ],
      "foods": [
        {
          "foodName": "Fist Fry",
          "restaurantName": "Fish Deck"
        },
        {
          "foodName": "Fist Fry",
          "restaurantName": "Fish Deck"
        }
      ],
      "user": {
        "userName": "Anil",
        "userImage": "https://cdn.pixabay.com/photo/2020/05/09/13/29/photographer-5149664_1280.jpg"
      },
      "created_at": "2020-10-11T20:44:52.000Z"
    },
    {
      "id": "abc123456",
      "location": "Goa",
      "description": "A beautiful place to vist, cool beaches and vintage streets",
      "images": [
        "https://images.pexels.com/photos/302769/pexels-photo-302769.jpeg?auto=compress&cs=tinysrgb&dpr=2&h=650&w=940",
        "https://images.pexels.com/photos/884979/pexels-photo-884979.jpeg?auto=compress&cs=tinysrgb&dpr=2&h=650&w=940",
        "https://images.pexels.com/photos/291762/pexels-photo-291762.jpeg?auto=compress&cs=tinysrgb&dpr=2&h=650&w=940"
      ],
      "hotels": [
        {
          "hotelName": "Baga Resort",
          "hotelLocation": "Near Baga Beach"
        },
        {
          "hotelName": "Palolem Resort",
          "hotelLocation": "Near Baga Beach"
        }
      ],
      "foods": [
        {
          "foodName": "Fist Fry",
          "restaurantName": "Fish Deck"
        },
        {
          "foodName": "Fist Fry",
          "restaurantName": "Fish Deck"
        }
      ],
      "user": {
        "userName": "Anil",
        "userImage": "https://cdn.pixabay.com/photo/2020/05/09/13/29/photographer-5149664_1280.jpg"
      },
      "created_at": "2020-9-11T20:44:52.000Z"
    },
    {
      "id": "abc1234567",
      "location": "Goa",
      "description": "A beautiful place to vist, cool beaches and vintage streets",
      "images": [
        "https://images.pexels.com/photos/302769/pexels-photo-302769.jpeg?auto=compress&cs=tinysrgb&dpr=2&h=650&w=940",
        "https://images.pexels.com/photos/884979/pexels-photo-884979.jpeg?auto=compress&cs=tinysrgb&dpr=2&h=650&w=940",
        "https://images.pexels.com/photos/291762/pexels-photo-291762.jpeg?auto=compress&cs=tinysrgb&dpr=2&h=650&w=940"
      ],
      "hotels": [
        {
          "hotelName": "Baga Resort",
          "hotelLocation": "Near Baga Beach"
        },
        {
          "hotelName": "Palolem Resort",
          "hotelLocation": "Near Baga Beach"
        }
      ],
      "foods": [
        {
          "foodName": "Fist Fry",
          "restaurantName": "Fish Deck"
        },
        {
          "foodName": "Fist Fry",
          "restaurantName": "Fish Deck"
        }
      ],
      "user": {
        "userName": "Anil",
        "userImage": "https://cdn.pixabay.com/photo/2020/05/09/13/29/photographer-5149664_1280.jpg"
      },
      "created_at": "2020-8-11T20:44:52.000Z"
    },
    {
      "id": "abc12345678",
      "location": "Goa",
      "description": "A beautiful place to vist, cool beaches and vintage streets",
      "images": [
        "https://images.pexels.com/photos/302769/pexels-photo-302769.jpeg?auto=compress&cs=tinysrgb&dpr=2&h=650&w=940",
        "https://images.pexels.com/photos/884979/pexels-photo-884979.jpeg?auto=compress&cs=tinysrgb&dpr=2&h=650&w=940",
        "https://images.pexels.com/photos/291762/pexels-photo-291762.jpeg?auto=compress&cs=tinysrgb&dpr=2&h=650&w=940"
      ],
      "hotels": [
        {
          "hotelName": "Baga Resort",
          "hotelLocation": "Near Baga Beach"
        },
        {
          "hotelName": "Palolem Resort",
          "hotelLocation": "Near Baga Beach"
        }
      ],
      "foods": [
        {
          "foodName": "Fist Fry",
          "restaurantName": "Fish Deck"
        },
        {
          "foodName": "Fist Fry",
          "restaurantName": "Fish Deck"
        }
      ],
      "user": {
        "userName": "Anil",
        "userImage": "https://cdn.pixabay.com/photo/2020/05/09/13/29/photographer-5149664_1280.jpg"
      },
      "created_at": "2020-8-11T20:44:52.000Z"
    },
    {
      "id": "abc123456789",
      "location": "Goa",
      "description": "A beautiful place to vist, cool beaches and vintage streets",
      "images": [
        "https://images.pexels.com/photos/302769/pexels-photo-302769.jpeg?auto=compress&cs=tinysrgb&dpr=2&h=650&w=940",
        "https://images.pexels.com/photos/884979/pexels-photo-884979.jpeg?auto=compress&cs=tinysrgb&dpr=2&h=650&w=940",
        "https://images.pexels.com/photos/291762/pexels-photo-291762.jpeg?auto=compress&cs=tinysrgb&dpr=2&h=650&w=940"
      ],
      "hotels": [
        {
          "hotelName": "Baga Resort",
          "hotelLocation": "Near Baga Beach"
        },
        {
          "hotelName": "Palolem Resort",
          "hotelLocation": "Near Baga Beach"
        }
      ],
      "foods": [
        {
          "foodName": "Fist Fry",
          "restaurantName": "Fish Deck"
        },
        {
          "foodName": "Fist Fry",
          "restaurantName": "Fish Deck"
        }
      ],
      "user": {
        "userName": "Anil",
        "userImage": "https://cdn.pixabay.com/photo/2020/05/09/13/29/photographer-5149664_1280.jpg"
      },
      "created_at": "2020-7-11T20:44:52.000Z"
    },
    {
      "id": "abc1234567890",
      "location": "Goa",
      "description": "A beautiful place to vist, cool beaches and vintage streets",
      "images": [
        "https://images.pexels.com/photos/302769/pexels-photo-302769.jpeg?auto=compress&cs=tinysrgb&dpr=2&h=650&w=940",
        "https://images.pexels.com/photos/884979/pexels-photo-884979.jpeg?auto=compress&cs=tinysrgb&dpr=2&h=650&w=940",
        "https://images.pexels.com/photos/291762/pexels-photo-291762.jpeg?auto=compress&cs=tinysrgb&dpr=2&h=650&w=940"
      ],
      "hotels": [
        {
          "hotelName": "Baga Resort",
          "hotelLocation": "Near Baga Beach"
        },
        {
          "hotelName": "Palolem Resort",
          "hotelLocation": "Near Baga Beach"
        }
      ],
      "foods": [
        {
          "foodName": "Fist Fry",
          "restaurantName": "Fish Deck"
        },
        {
          "foodName": "Fist Fry",
          "restaurantName": "Fish Deck"
        }
      ],
      "user": {
        "userName": "Anil",
        "userImage": "https://cdn.pixabay.com/photo/2020/05/09/13/29/photographer-5149664_1280.jpg"
      },
      "created_at": "2020-6-11T20:44:52.000Z"
    },
    {
      "id": "abc01223456789",
      "location": "Goa",
      "description": "A beautiful place to vist, cool beaches and vintage streets",
      "images": [
        "https://images.pexels.com/photos/302769/pexels-photo-302769.jpeg?auto=compress&cs=tinysrgb&dpr=2&h=650&w=940",
        "https://images.pexels.com/photos/884979/pexels-photo-884979.jpeg?auto=compress&cs=tinysrgb&dpr=2&h=650&w=940",
        "https://images.pexels.com/photos/291762/pexels-photo-291762.jpeg?auto=compress&cs=tinysrgb&dpr=2&h=650&w=940"
      ],
      "hotels": [
        {
          "hotelName": "Baga Resort",
          "hotelLocation": "Near Baga Beach"
        },
        {
          "hotelName": "Palolem Resort",
          "hotelLocation": "Near Baga Beach"
        }
      ],
      "foods": [
        {
          "foodName": "Fist Fry",
          "restaurantName": "Fish Deck"
        },
        {
          "foodName": "Fist Fry",
          "restaurantName": "Fish Deck"
        }
      ],
      "user": {
        "userName": "Anil",
        "userImage": "https://cdn.pixabay.com/photo/2020/05/09/13/29/photographer-5149664_1280.jpg"
      },
      "created_at": "2020-5-11T20:44:52.000Z"
    }
  ],
  "pagination": {
    "total_records": 100,
    "current_page": 1,
    "total_pages": 10,
    "next_page": 2,
    "prev_page": null
  }
}